{
    "name": "torre",
    "type": "project:application",
    "paths": {
        "root": "src",
        "resources": "resources",
        "elements": "resources/elements",
        "attributes": "resources/attributes",
        "valueConverters": "resources/value-converters",
        "bindingBehaviors": "resources/binding-behaviors"
    },
    "transpiler": {
        "id": "babel",
        "fileExtension": ".js"
    },
    "build": {
        "options": {
            "server": "dev",
            "extractCss": "prod",
            "coverage": false
        }
    },
    "platform": {
        "hmr": false,
        "open": false,
        "port": 8080,
        "host": "localhost",
        "output": "dist"
    },
    "copyFiles": {
        "node_modules/@fortawesome/fontawesome-free/webfonts/*": "@fortawesome/fontawesome-free/webfonts"
    },
    "packageManager": "npm"
}